…
``` r
leds.mspct[Osram_leds]
#> Object: source_mspct [3 x 1]
#> --- Member: Osram_GF_CSHPM2.24_2T4T_1 ---
#> Object: source_spct [925 x 2]
#> Wavelength range 251.29-900.1 nm, step 1.023182e-12-3.79 nm 
#> Label: LED type GF_CSHPM2.24_2T4T_1 from Osram 
#> Measured on 2021-10-09 22:19:15.2049 UTC 
#> Spectral data in s.e.irrad normalized to 1 at 728.8 nm (max in 251.29-900.1 nm)
#> Variables:
#>  w.length: Wavelength [nm]
#>  s.e.irrad: Spectral energy irradiance [normalized] 
#> --
#> # A tibble: 925 × 2
#>    w.length s.e.irrad
#>       <dbl>     <dbl>
#>  1     251.         0
#>  2     253.         0
#>  3     253.         0
#>  4     254.         0
#>  5     254.         0
#>  6     255.         0
#>  7     255.         0
#>  8     256.         0
#>  9     256.         0
#> 10     257.         0
#> # ℹ 915 more rows
#> --- Member: Osram_GW_CSSRM3.HW ---
#> Object: source_spct [833 x 2]
#> Wavelength range 251.29-900.1 nm, step 1.023182e-12-3.79 nm 
#> Label: LED type GW_CSSRM3.HW from Osram 
#> Measured on 2022-01-06 17:48:51.853322 UTC 
#> Spectral data in s.e.irrad normalized to 1 at 436.6 nm (max in 251.29-900.1 nm)
#> Variables:
#>  w.length: Wavelength [nm]
#>  s.e.irrad: Spectral energy irradiance [normalized] 
#> --
#> # A tibble: 833 × 2
#>    w.length s.e.irrad
#>       <dbl>     <dbl>
#>  1     251.         0
#>  2     253.         0
#>  3     254.         0
#>  4     254.         0
#>  5     255.         0
#>  6     255.         0
#>  7     256.         0
#>  8     256.         0
#>  9     257.         0
#> 10     259.         0
#> # ℹ 823 more rows
#> --- Member: Osram_LY5436 ---
#> Object: source_spct [1,368 x 2]
#> Wavelength range 250.01-900.1 nm, step 1.023182e-12-6.11 nm 
#> Label: LED type LY5436 from Osram 
#> Measured on 2011-07-30 UTC 
#> Spectral data in s.e.irrad normalized to 1 at 594.2 nm (max in 250.01-900.1 nm)
#> Variables:
#>  w.length: Wavelength [nm]
#>  s.e.irrad: Spectral energy irradiance [normalized] 
#> --
#> # A tibble: 1,368 × 2
#>    w.length s.e.irrad
#>       <dbl>     <dbl>
#>  1     250.         0
#>  2     256.         0
#>  3     257.         0
#>  4     257.         0
#>  5     258.         0
#>  6     258          0
#>  7     258.         0
#>  8     259.         0
#>  9     259.         0
#> 10     260.         0
#> # ℹ 1,358 more rows
…
