User Guide
…
We can use a character string as index to extract an individual source_spct object.

leds.mspct$UV395

## Object: source_spct [1,425 x 2]
## Wavelength range 250.05 to 899.78 nm, step 0.43 to 0.48 nm 
## Label: UVA LED Roithner-Laser UV395 
## Time unit 1s
## Spectral data normalized to 1 at 391.03 nm 
## 
## # A tibble: 1,425 x 2
##    w.length s.e.irrad
##       <dbl>     <dbl>
##  1     250.         0
##  2     251.         0
##  3     251          0
##  4     251.         0
##  5     252.         0
##  6     252.         0
##  7     253.         0
##  8     253.         0
##  9     254.         0
## 10     254.         0
## # ... with 1,415 more rows

leds.mspct[["UV395"]]

## Object: source_spct [1,425 x 2]
## Wavelength range 250.05 to 899.78 nm, step 0.43 to 0.48 nm 
## Label: UVA LED Roithner-Laser UV395 
## Time unit 1s
## Spectral data normalized to 1 at 391.03 nm 
## 
## # A tibble: 1,425 x 2
##    w.length s.e.irrad
##       <dbl>     <dbl>
##  1     250.         0
##  2     251.         0
##  3     251          0
##  4     251.         0
##  5     252.         0
##  6     252.         0
##  7     253.         0
##  8     253.         0
##  9     254.         0
## 10     254.         0
## # ... with 1,415 more rows

Be aware that according to R’s rules, using single square brackets will return a source_mspct object, a collection of spectra, possibly of length one. This statement is not equivalent to the one in the chunk immediately above.

leds.mspct["UV395"]

## Object: source_mspct [1 x 1]
## --- Member: UV395 ---
## Object: source_spct [1,425 x 2]
## Wavelength range 250.05 to 899.78 nm, step 0.43 to 0.48 nm 
## Label: UVA LED Roithner-Laser UV395 
## Time unit 1s
## Spectral data normalized to 1 at 391.03 nm 
## 
## # A tibble: 1,425 x 2
##    w.length s.e.irrad
##       <dbl>     <dbl>
##  1     250.         0
##  2     251.         0
##  3     251          0
##  4     251.         0
##  5     252.         0
##  6     252.         0
##  7     253.         0
##  8     253.         0
##  9     254.         0
## 10     254.         0
## # ... with 1,415 more rows
## 
## --- END ---
…
Accessing subsets of spectra

We can subset the source_mspct object by indexing with vectors of character strings. The package provides some predefined ones, and users can easily define their own, either as constants or through computation. Here we use a vector defined by the package.

leds.mspct[norlux]

## Object: source_mspct [4 x 1]
## --- Member: NHXRGB090_R ---
## Object: source_spct [1,445 x 2]
## Wavelength range 250 to 900 nm, step 0.01 to 0.47 nm 
## Label: Norlux 90 die LED array type NHXRGB0905005, red channel 
## Time unit 1s
## Spectral data normalized to 1 at 643.08 nm 
## 
## # A tibble: 1,445 x 2
##    w.length s.e.irrad
##  *    <dbl>     <dbl>
##  1     250          0
##  2     250.         0
##  3     250.         0
##  4     251.         0
##  5     251.         0
##  6     252.         0
##  7     252.         0
##  8     253.         0
##  9     253.         0
## 10     254.         0
## # ... with 1,435 more rows
## --- Member: NHXRGB090_G ---
## Object: source_spct [1,445 x 2]
## Wavelength range 250 to 900 nm, step 0.01 to 0.47 nm 
## Label: Norlux 90 die LED array type NHXRGB0905005, green channel 
## Time unit 1s
## Spectral data normalized to 1 at 515.52 nm 
## 
## # A tibble: 1,445 x 2
##    w.length s.e.irrad
##  *    <dbl>     <dbl>
##  1     250          0
##  2     250.         0
##  3     250.         0
##  4     251.         0
##  5     251.         0
##  6     252.         0
##  7     252.         0
##  8     253.         0
##  9     253.         0
## 10     254.         0
## # ... with 1,435 more rows
## --- Member: NHXRGB090_B ---
## Object: source_spct [1,445 x 2]
## Wavelength range 250 to 900 nm, step 0.01 to 0.47 nm 
## Label: Norlux 90 die LED array type NHXRGB0905005, blue channel 
## Time unit 1s
## Spectral data normalized to 1 at 462.59 nm 
## 
## # A tibble: 1,445 x 2
##    w.length s.e.irrad
##  *    <dbl>     <dbl>
##  1     250          0
##  2     250.         0
##  3     250.         0
##  4     251.         0
##  5     251.         0
##  6     252.         0
##  7     252.         0
##  8     253.         0
##  9     253.         0
## 10     254.         0
## # ... with 1,435 more rows
## --- Member: NHXRGB090 ---
## Object: source_spct [4,335 x 3]
## containing 3 spectra in long form
## Wavelength range 250 to 900 nm, step 0.01 to 0.47 nm 
## R label: Norlux 90 die LED array type NHXRGB0905005, red channel
## G label: Norlux 90 die LED array type NHXRGB0905005, green channel
## B label: Norlux 90 die LED array type NHXRGB0905005, blue channel 
## Time unit 1s
## Spectral data normalized to 1 at TRUE 
## 
## # A tibble: 4,335 x 3
##    w.length s.e.irrad channel
##       <dbl>     <dbl> <fct>  
##  1     250          0 R      
##  2     250.         0 R      
##  3     250.         0 R      
##  4     251.         0 R      
##  5     251.         0 R      
##  6     252.         0 R      
##  7     252.         0 R      
##  8     253.         0 R      
##  9     253.         0 R      
## 10     254.         0 R      
## # ... with 4,325 more rows
## 
## --- END ---

And below we use a computed one. In this case we extract the member spectra with names containing the string “QDDH”.

leds.mspct[grep("QDDH", names(leds.mspct))]

## Object: source_mspct [4 x 1]
## --- Member: QDDH66002 ---
## Object: source_spct [1,445 x 2]
## Wavelength range 250 to 900 nm, step 0.01 to 0.47 nm 
## Label: LED, type  QDDH66002 
## Measured on 2016-07-05 10:00:00 UTC 
## Time unit 1s
## Spectral data normalized to 1 at 652.01 nm 
## 
## # A tibble: 1,445 x 2
##    w.length s.e.irrad
##  *    <dbl>     <dbl>
##  1     250    0      
##  2     250.   0      
##  3     250.   0.00267
##  4     251.   0.00156
##  5     251.   0      
##  6     252.   0      
##  7     252.   0.0105 
##  8     253.   0      
##  9     253.   0      
## 10     254.   0      
## # ... with 1,435 more rows
## --- Member: QDDH68002 ---
## Object: source_spct [1,445 x 2]
## Wavelength range 250 to 900 nm, step 0.01 to 0.47 nm 
## Label: LED, type  QDDH68002 
## Measured on 2016-07-05 10:00:00 UTC 
## Time unit 1s
## Spectral data normalized to 1 at 673.4 nm 
## 
## # A tibble: 1,445 x 2
##    w.length s.e.irrad
##  *    <dbl>     <dbl>
##  1     250    0      
##  2     250.   0      
##  3     250.   0      
##  4     251.   0.00603
##  5     251.   0      
##  6     252.   0      
##  7     252.   0.00392
##  8     253.   0      
##  9     253.   0      
## 10     254.   0      
## # ... with 1,435 more rows
## --- Member: QDDH70002 ---
## Object: source_spct [1,445 x 2]
## Wavelength range 250 to 900 nm, step 0.01 to 0.47 nm 
## Label: LED, type  QDDH70002 
## Measured on 2016-07-05 10:00:00 UTC 
## Time unit 1s
## Spectral data normalized to 1 at 707.13 nm 
## 
## # A tibble: 1,445 x 2
##    w.length s.e.irrad
##  *    <dbl>     <dbl>
##  1     250          0
##  2     250.         0
##  3     250.         0
##  4     251.         0
##  5     251.         0
##  6     252.         0
##  7     252.         0
##  8     253.         0
##  9     253.         0
## 10     254.         0
## # ... with 1,435 more rows
## --- Member: QDDH73502 ---
## Object: source_spct [1,445 x 2]
## Wavelength range 250 to 900 nm, step 0.01 to 0.47 nm 
## Label: LED, type  QDDH73502 
## Measured on 2016-07-05 10:00:00 UTC 
## Time unit 1s
## Spectral data normalized to 1 at 746.42 nm 
## 
## # A tibble: 1,445 x 2
##    w.length s.e.irrad
##  *    <dbl>     <dbl>
##  1     250    0.00807
##  2     250.   0.00825
##  3     250.   0      
##  4     251.   0      
##  5     251.   0      
##  6     252.   0      
##  7     252.   0      
##  8     253.   0      
##  9     253.   0      
## 10     254.   0      
## # ... with 1,435 more rows
## 
## --- END ---

Querying metadata

If package ‘photobiology’ is loaded then the specialised print() method will be used and a summary of the metadata will be included in the header of the printout.

leds.mspct$LZ1_10R302

## Object: source_spct [1,421 x 2]
## Wavelength range 251.16 to 898.81 nm, step 0.43 to 0.48 nm 
## Label: LED Engin type LZ1-10R302, Far red 740 nm
## Measured at 700 mA, and at 40 mm from cosine diffuser. 
## Measured on 2017-06-07 16:04:58 UTC 
## Time unit 1s
## 
## # A tibble: 1,421 x 2
##    w.length s.e.irrad
##  *    <dbl>     <dbl>
##  1     251.   0.00308
##  2     252.   0.00353
##  3     252.   0.00363
##  4     253.   0.00382
##  5     253.   0.00314
##  6     254.   0.00184
##  7     254    0.00317
##  8     254.   0.00442
##  9     255.   0.00281
## 10     255.   0.00345
## # ... with 1,411 more rows
…
is_normalized(leds.mspct$LZ1_10R302)

## [1] FALSE

leds.mspct$UVMAX305

## Object: source_spct [1,425 x 2]
## Wavelength range 250.14 to 899.77 nm, step 0.43 to 0.48 nm 
## Label: UVA LED 310nm Roithner-Laser (SeTi UVCLEAN) type UVMAX305-HL-15 (TO3 hemispherical lens), measured at 100 mm distance from cosine difuser 
## Measured on 2015-02-10 15:34:32 UTC 
## Time unit 1s
## Spectral data normalized to 1 at 313.14 nm 
## 
## # A tibble: 1,425 x 2
##    w.length s.e.irrad
##       <dbl>     <dbl>
##  1     250.         0
##  2     251.         0
##  3     251.         0
##  4     252.         0
##  5     252.         0
##  6     253.         0
##  7     253          0
##  8     253.         0
##  9     254.         0
## 10     254.         0
## # ... with 1,415 more rows
…
