User Guide: 1 Data and their use
…
We can use a character string as index to extract an individual
source_spct object.

leds.mspct$Roithner_UV395

## Object: source_spct [1,335 x 2]
## Wavelength range 250.05-899.78 nm, step 0.43-7.45 nm 
## Label: LED type UV395 from Roithner-Laser 
## Spectral data normalized to s.e.irrad = 1 at 391.03 nm (max in 250.05-899.78 nm)
## Variables:
##  w.length: Wavelength [nm]
##  s.e.irrad: Spectral energy irradiance [normalized] 
## --
## # A tibble: 1,335 × 2
##    w.length s.e.irrad
##       <dbl>     <dbl>
##  1     250.         0
##  2     255.         0
##  3     255.         0
##  4     256.         0
##  5     256.         0
##  6     257.         0
##  7     257.         0
##  8     258.         0
##  9     258.         0
## 10     259.         0
## # ℹ 1,325 more rows

leds.mspct[["Roithner_UV395"]]

## Object: source_spct [1,335 x 2]
## Wavelength range 250.05-899.78 nm, step 0.43-7.45 nm 
## Label: LED type UV395 from Roithner-Laser 
## Spectral data normalized to s.e.irrad = 1 at 391.03 nm (max in 250.05-899.78 nm)
## Variables:
##  w.length: Wavelength [nm]
##  s.e.irrad: Spectral energy irradiance [normalized] 
## --
## # A tibble: 1,335 × 2
##    w.length s.e.irrad
##       <dbl>     <dbl>
##  1     250.         0
##  2     255.         0
##  3     255.         0
##  4     256.         0
##  5     256.         0
##  6     257.         0
##  7     257.         0
##  8     258.         0
##  9     258.         0
## 10     259.         0
## # ℹ 1,325 more rows
…
leds.mspct["Roithner_UV395"]

## Object: source_mspct [1 x 1]
## --- Member: Roithner_UV395 ---
## Object: source_spct [1,335 x 2]
## Wavelength range 250.05-899.78 nm, step 0.43-7.45 nm 
## Label: LED type UV395 from Roithner-Laser 
## Spectral data normalized to s.e.irrad = 1 at 391.03 nm (max in 250.05-899.78 nm)
## Variables:
##  w.length: Wavelength [nm]
##  s.e.irrad: Spectral energy irradiance [normalized] 
## --
## # A tibble: 1,335 × 2
##    w.length s.e.irrad
##       <dbl>     <dbl>
##  1     250.         0
##  2     255.         0
##  3     255.         0
##  4     256.         0
##  5     256.         0
##  6     257.         0
##  7     257.         0
##  8     258.         0
##  9     258.         0
## 10     259.         0
## # ℹ 1,325 more rows
## 
## --- END ---
…
leds.mspct[Norlux_leds]

## Object: source_mspct [4 x 1]
## --- Member: Norlux_NHXRGB090S00S_blue ---
## Object: source_spct [1,235 x 2]
## Wavelength range 250-900 nm, step 0.43-14.51 nm 
## Label: 12W RGB LED COB Type NHXRGB090S00S from Norlux 
## Measured on 2013-11-27 UTC 
## Spectral data normalized to s.e.irrad = 1 at 462.59 nm (max in 250-900 nm)
## Variables:
##  w.length: Wavelength [nm]
##  s.e.irrad: Spectral energy irradiance [normalized] 
## --
## # A tibble: 1,235 × 2
##    w.length s.e.irrad
##       <dbl>     <dbl>
##  1     250          0
##  2     254.         0
##  3     255.         0
##  4     255.         0
##  5     256.         0
##  6     256.         0
##  7     257.         0
##  8     257.         0
##  9     258.         0
## 10     258          0
## # ℹ 1,225 more rows
## --- Member: Norlux_NHXRGB090S00S_green ---
## Object: source_spct [1,190 x 2]
## Wavelength range 250-900 nm, step 0.43-14.36 nm 
## Label: 12W RGB LED COB Type NHXRGB090S00S from Norlux 
## Measured on 2013-11-27 UTC 
## Spectral data normalized to s.e.irrad = 1 at 515.52 nm (max in 250-900 nm)
## Variables:
##  w.length: Wavelength [nm]
##  s.e.irrad: Spectral energy irradiance [normalized] 
## --
## # A tibble: 1,190 × 2
##    w.length s.e.irrad
##       <dbl>     <dbl>
##  1     250          0
##  2     254.         0
##  3     255.         0
##  4     255.         0
##  5     256.         0
##  6     256.         0
##  7     257.         0
##  8     257.         0
##  9     258.         0
## 10     258          0
## # ℹ 1,180 more rows
## --- Member: Norlux_NHXRGB090S00S_red ---
## Object: source_spct [1,282 x 2]
## Wavelength range 250-900 nm, step 0.43-14.43 nm 
## Label: 12W RGB LED COB Type NHXRGB090S00S from Norlux 
## Measured on 2013-11-27 UTC 
## Spectral data normalized to s.e.irrad = 1 at 643.08 nm (max in 250-900 nm)
## Variables:
##  w.length: Wavelength [nm]
##  s.e.irrad: Spectral energy irradiance [normalized] 
## --
## # A tibble: 1,282 × 2
##    w.length s.e.irrad
##       <dbl>     <dbl>
##  1     250          0
##  2     254.         0
##  3     255.         0
##  4     255.         0
##  5     256.         0
##  6     256.         0
##  7     257.         0
##  8     257.         0
##  9     258.         0
## 10     258          0
## # ℹ 1,272 more rows
## --- Member: NA ---
## NULL
## 
## --- END ---
…
leds.mspct[grep("QDDH", names(leds.mspct))]

## Object: source_mspct [4 x 1]
## --- Member: QuantumDevices_QDDH66002 ---
## Object: source_spct [1,267 x 2]
## Wavelength range 250.01-900 nm, step 0.43-7.19 nm 
## Label: LED, type: QDDH66002 from Quantum Devices, USA; ca. 1995 
## Measured on 2011-07-30 UTC 
## Spectral data normalized to s.e.irrad = 1 at 652.01 nm (max in 250.01-900 nm)
## Variables:
##  w.length: Wavelength [nm]
##  s.e.irrad: Spectral energy irradiance [normalized] 
## --
## # A tibble: 1,267 × 2
##    w.length s.e.irrad
##       <dbl>     <dbl>
##  1     250.         0
##  2     255.         0
##  3     255.         0
##  4     256.         0
##  5     256.         0
##  6     257.         0
##  7     257.         0
##  8     258.         0
##  9     258          0
## 10     258.         0
## # ℹ 1,257 more rows
## --- Member: QuantumDevices_QDDH68002 ---
## Object: source_spct [1,264 x 2]
## Wavelength range 250.01-900 nm, step 0.43-7.18 nm 
## Label: LED, type: QDDH68002 from Quantum Devices, USA; ca. 1995 
## Measured on 2011-07-30 UTC 
## Spectral data normalized to s.e.irrad = 1 at 673.4 nm (max in 250.01-900 nm)
## Variables:
##  w.length: Wavelength [nm]
##  s.e.irrad: Spectral energy irradiance [normalized] 
## --
## # A tibble: 1,264 × 2
##    w.length s.e.irrad
##       <dbl>     <dbl>
##  1     250.         0
##  2     255.         0
##  3     255.         0
##  4     256.         0
##  5     256.         0
##  6     257.         0
##  7     257.         0
##  8     258.         0
##  9     258          0
## 10     258.         0
## # ℹ 1,254 more rows
## --- Member: QuantumDevices_QDDH70002 ---
## Object: source_spct [1,250 x 2]
## Wavelength range 250.01-900 nm, step 0.43-7.17 nm 
## Label: LED, type: QDDH70002 from Quantum Devices, USA; ca. 1995 
## Measured on 2011-07-30 UTC 
## Spectral data normalized to s.e.irrad = 1 at 707.13 nm (max in 250.01-900 nm)
## Variables:
##  w.length: Wavelength [nm]
##  s.e.irrad: Spectral energy irradiance [normalized] 
## --
## # A tibble: 1,250 × 2
##    w.length s.e.irrad
##       <dbl>     <dbl>
##  1     250.         0
##  2     255.         0
##  3     255.         0
##  4     256.         0
##  5     256.         0
##  6     257.         0
##  7     257.         0
##  8     258.         0
##  9     258          0
## 10     258.         0
## # ℹ 1,240 more rows
## --- Member: QuantumDevices_QDDH73502 ---
## Object: source_spct [1,256 x 2]
## Wavelength range 250.01-900 nm, step 0.43-7.13 nm 
## Label: LED, type: QDDH73502 from Quantum Devices, USA; ca. 1995 
## Measured on 2011-07-30 UTC 
## Spectral data normalized to s.e.irrad = 1 at 746.42 nm (max in 250.01-900 nm)
## Variables:
##  w.length: Wavelength [nm]
##  s.e.irrad: Spectral energy irradiance [normalized] 
## --
## # A tibble: 1,256 × 2
##    w.length s.e.irrad
##       <dbl>     <dbl>
##  1     250.         0
##  2     255.         0
##  3     255.         0
##  4     256.         0
##  5     256.         0
##  6     257.         0
##  7     257.         0
##  8     258.         0
##  9     258          0
## 10     258.         0
## # ℹ 1,246 more rows
## 
## --- END ---
…
leds.mspct$LedEngin_LZ1_10R302_740nm

## Object: source_spct [894 x 2]
## Wavelength range 251.29-900 nm, step 1.023182e-12-7.6 nm 
## Label: 3W SMD LED type LZ1-10R302 from LED Engin 
## Measured on 2021-10-09 23:02:03.877887 UTC 
## Spectral data normalized to s.e.irrad = 1 at 729.66 nm (max in 251.29-900 nm)
## Variables:
##  w.length: Wavelength [nm]
##  s.e.irrad: Spectral energy irradiance [normalized] 
## --
## # A tibble: 894 × 2
##    w.length s.e.irrad
##       <dbl>     <dbl>
##  1     251.         0
##  2     259.         0
##  3     266.         0
##  4     274.         0
##  5     277.         0
##  6     277.         0
##  7     278.         0
##  8     278.         0
##  9     279.         0
## 10     279.         0
## # ℹ 884 more rows
…
## [1] TRUE

leds.mspct$Roithner_UVMAX305

## Object: source_spct [1,389 x 2]
## Wavelength range 250.14-899.77 nm, step 0.43-4.76 nm 
## Label: LED type UVMAX305 from Roithner-Laser 
## Measured on 2015-02-10 15:34:32 UTC 
## Spectral data normalized to s.e.irrad = 1 at 313.14 nm (max in 250.14-899.77 nm)
## Variables:
##  w.length: Wavelength [nm]
##  s.e.irrad: Spectral energy irradiance [normalized] 
## --
## # A tibble: 1,389 × 2
##    w.length s.e.irrad
##       <dbl>     <dbl>
##  1     250.         0
##  2     255.         0
##  3     255.         0
##  4     256.         0
##  5     256.         0
##  6     257.         0
##  7     257.         0
##  8     258.         0
##  9     258.         0
## 10     259.         0
## # ℹ 1,379 more rows
…
